{
  "IcoMoonType": "selection",
  "icons": [
    {
      "icon": {
        "paths": [
          "M672.773 420.483h-74.203v-192.928c0-123.671-98.937-222.609-222.609-222.609s-222.609 98.937-222.609 222.609v192.928h-74.203c-39.575 0-74.203 34.628-74.203 74.203v455.111c0 39.575 34.628 74.203 74.203 74.203h593.623c39.575 0 74.203-34.628 74.203-74.203v-455.111c-4.947-44.522-34.628-74.203-74.203-74.203zM197.874 222.609c0-93.99 79.15-173.14 173.14-173.14s173.14 79.15 173.14 173.14v192.928h-351.227v-192.928zM697.507 949.797c0 14.841-9.894 24.734-24.734 24.734h-593.623c-14.841 0-24.734-9.894-24.734-24.734v-455.111c0-14.841 9.894-24.734 24.734-24.734h593.623c14.841 0 24.734 9.894 24.734 24.734v455.111z",
          "M371.014 554.048c-54.415 0-103.884 44.522-103.884 103.884 0 29.681 9.894 54.415 29.681 74.203v93.99c0 39.575 29.681 69.256 69.256 69.256s69.256-29.681 69.256-69.256v-93.99c19.787-19.787 29.681-44.522 29.681-74.203 9.894-59.362-34.628-103.884-93.99-103.884zM410.589 692.56c-9.894 9.894-14.841 19.787-14.841 34.628v93.99c0 9.894-9.894 19.787-19.787 19.787s-19.787-9.894-19.787-19.787v-93.99c0-14.841-4.947-24.734-14.841-34.628s-14.841-24.734-14.841-39.575c0-29.681 24.734-54.415 54.415-54.415s54.415 24.734 54.415 54.415c-9.894 14.841-14.841 29.681-24.734 39.575z"
        ],
        "attrs": [],
        "width": 742,
        "isMulticolor": false,
        "isMulticolor2": false,
        "grid": 0,
        "tags": [
          "alarmas"
        ],
        "colorPermutations": {}
      },
      "attrs": [],
      "properties": {
        "order": 2,
        "id": 24,
        "name": "alarmas",
        "prevSize": 32,
        "code": 59648
      },
      "setIdx": 0,
      "setId": 0,
      "iconIdx": 0
    },
    {
      "icon": {
        "paths": [
          "M876.346 0h-158.554c-30.916 0-56.016 25.154-56.016 56.043v6.843h-6.113c-24.532 0-44.494 19.069-44.494 42.519v15.011c0 23.45 19.934 42.519 44.494 42.519h6.113v339.665c-6.6-15.607-22.531-26.669-41.194-26.669h-576.090c-24.532 0-44.494 19.069-44.494 45.089 0 13.659 6.87 25.668 17.365 33.458 43.466 99.968 121.796 179.408 216.138 219.682 1.488 11.522 3.219 27.075 3.273 35.892-0.487 93.558-53.825 140.81-79.466 163.531-11.874 10.522-23.099 20.475-17.473 35.622 2.056 5.437 7.952 14.633 24.803 14.795h575.197c8.223 0 15.607-4.95 18.744-12.523 3.11-7.573 1.406-16.31-4.409-22.098l-2.759-2.732c-19.15-19.015-72.785-72.272-85.714-142.001h8.709c6.194 9.196 16.202 15.607 28.103 15.607h15.607c10.522 0 19.934-4.598 26.29-12.063h12.983l8.006 8.006v11.874c-7.465 6.329-12.063 15.769-12.063 26.263v15.634c0 11.847 6.383 21.8 15.498 28.021v51.526c0 19.015 15.444 34.486 34.459 34.486h47.496c19.015 0 34.459-15.471 34.459-34.486v-50.85c9.683-6.113 16.499-16.391 16.499-28.671v-15.634c0-10.495-4.598-19.907-12.063-26.263v-61.696c0-5.788-2.488-11.306-6.816-15.174l-70-62.21c-3.706-3.3-8.493-5.112-13.47-5.112h-55.015c-6.329-7.438-15.769-12.036-26.29-12.036h-15.607c-2.732 0-5.166 0.947-7.709 1.569 26.642-44.818 64.455-83.415 91.638-111.031 18.528-18.852 30.834-31.429 35.892-42.465h53.987c30.916 0 56.016-25.154 56.016-56.043v-447.802c0.054-30.943-25.046-56.097-55.962-56.097zM809.43 983.455v-38.976h35.297v38.976h-35.297zM708.623 752.441h5.031c3.192 7.195 10.359 12.036 18.555 12.036h59.559l57.422 51.039v64.833c0 8.195 4.896 15.363 12.063 18.555v5.004h-67.295v-5.004c7.195-3.165 12.063-10.359 12.063-18.555v-32.538c0-5.382-2.137-10.549-5.951-14.335l-19.88-19.88c-3.814-3.814-8.953-5.951-14.335-5.951h-33.647c-8.195 0-15.363 4.896-18.555 12.063h-5.031v-67.268zM651.742 120.444v-15.011c0-0.487 1.379-1.947 3.922-1.947h105.026c2.678 0 3.949 1.569 3.949 1.947v15.011c0 0.406-1.271 1.947-3.949 1.947h-105.026c-2.542 0-3.922-1.488-3.922-1.947zM665.834 524.618h-1.406c0.135-1.136 0.27-2.272 0.325-3.435 0.406 1.136 0.649 2.326 1.082 3.435zM44.466 516.503h576.090c2.515 0 3.895 1.488 3.895 4.517 0 0.487-1.379 1.947-3.895 1.947h-576.090c-2.515 0-3.922-1.488-3.922-4.517 0.027-0.46 1.406-1.947 3.922-1.947zM668.052 776.189v27.913h-4.571c0.703-9.44 2.272-18.744 4.571-27.913zM757.499 573.926c-50.552 51.445-135.212 137.538-135.212 241.59 0.46 72.461 39.49 131.398 70.54 167.939l-486.697-0.027c30.618-31.105 70.757-85.417 71.19-173.376-0.108-18.122-5.058-51.742-5.247-53.176-1.082-7.222-5.923-13.307-12.712-15.958-80.332-31.24-148.79-94.099-191.498-174.837l9.034-0.027c-0.108 4.030 0.595 8.114 3.002 11.739l1.623 2.434c3.895 5.951 10.359 9.169 16.959 9.169 3.841 0 7.682-1.082 11.117-3.327 6.87-4.517 10.008-12.469 8.818-20.069l647.874-1.028c-2.894 2.975-5.869 6.032-8.791 8.953zM891.791 503.845c0 8.682-6.789 15.471-15.444 15.471h-158.554c-8.52 0-15.444-6.951-15.444-15.471v-340.91h58.342c24.532 0 44.521-19.069 44.521-42.519v-15.011c0-23.45-19.961-42.519-44.521-42.519h-58.342v-6.843c0-8.52 6.924-15.471 15.444-15.471h158.554c8.655 0 15.444 6.789 15.444 15.471v447.802z",
          "M121.336 632.89c29.59 33.81 61.993 60.533 102.024 84.173 3.246 1.92 6.789 2.813 10.305 2.813 6.924 0 13.686-3.57 17.473-9.981 5.68-9.629 2.488-22.071-7.168-27.751-36.19-21.395-65.483-45.548-92.125-76.004-7.384-8.412-20.205-9.277-28.616-1.893s-9.277 20.205-1.893 28.644z"
        ],
        "attrs": [],
        "width": 932,
        "isMulticolor": false,
        "isMulticolor2": false,
        "grid": 0,
        "tags": [
          "baño2"
        ],
        "colorPermutations": {}
      },
      "attrs": [],
      "properties": {
        "order": 3,
        "id": 23,
        "name": "baño2",
        "prevSize": 32,
        "code": 59649
      },
      "setIdx": 0,
      "setId": 0,
      "iconIdx": 1
    },
    {
      "icon": {
        "paths": [
          "M979.753 986.074l-284.444-297.086c69.531-69.531 120.099-170.667 120.099-284.444 0-221.235-176.988-398.222-398.222-398.222s-398.222 176.988-398.222 398.222c0 221.235 176.988 398.222 398.222 398.222 94.815 0 183.309-31.605 252.84-94.815l284.444 297.086c6.321 6.321 6.321 6.321 12.642 6.321s12.642 0 12.642-6.321c6.321 0 6.321-12.642 0-18.963zM410.864 771.16c-202.272 0-360.296-164.346-360.296-360.296 0-202.272 164.346-360.296 360.296-360.296 202.272 0 360.296 164.346 360.296 360.296s-164.346 360.296-360.296 360.296z"
        ],
        "attrs": [],
        "width": 986,
        "isMulticolor": false,
        "isMulticolor2": false,
        "grid": 0,
        "tags": [
          "buscar"
        ],
        "colorPermutations": {}
      },
      "attrs": [],
      "properties": {
        "order": 7,
        "id": 22,
        "name": "buscar",
        "prevSize": 32,
        "code": 59650
      },
      "setIdx": 0,
      "setId": 0,
      "iconIdx": 2
    },
    {
      "icon": {
        "paths": [
          "M902.673 92.209h-53.384c-9.706 0-14.559 9.706-14.559 14.559 0 9.706 9.706 14.559 14.559 14.559h53.384c9.706 0 14.559-9.706 14.559-14.559s-4.853-14.559-14.559-14.559v0zM902.673 92.209z",
          "M902.673 165.005h-53.384c-9.706 0-14.559 9.706-14.559 14.559 0 9.706 9.706 14.559 14.559 14.559h53.384c9.706 0 14.559-9.706 14.559-14.559 0-9.706-4.853-14.559-14.559-14.559v0zM902.673 165.005z",
          "M72.796 926.938h53.384c9.706 0 14.559-9.706 14.559-14.559 0-9.706-9.706-14.559-14.559-14.559h-53.384c-9.706 0-14.559 9.706-14.559 14.559s9.706 14.559 14.559 14.559v0zM72.796 926.938z",
          "M72.796 854.142h53.384c9.706 0 14.559-9.706 14.559-14.559 0-9.706-9.706-14.559-14.559-14.559h-53.384c-9.706 0-14.559 9.706-14.559 14.559 0 9.706 9.706 14.559 14.559 14.559v0zM72.796 854.142z",
          "M834.73 465.896h-169.858v-14.559c0-9.706-9.706-14.559-14.559-14.559h-24.265v-48.531c0-67.943-58.237-126.18-126.18-126.18s-126.18 58.237-126.18 126.18v48.531h-24.265c-9.706 0-14.559 9.706-14.559 14.559v14.559h-194.123c-24.265 0-38.825-19.412-38.825-38.825v-189.27c0-24.265 19.412-38.825 38.825-38.825h417.365v9.706c0 48.531 38.825 87.355 87.355 87.355h160.152c9.706 0 14.559-9.706 14.559-14.559v-19.412h126.18c9.706 0 14.559-9.706 14.559-14.559v-184.417c0-9.706-9.706-14.559-14.559-14.559h-126.18v-19.412c0-9.706-9.706-14.559-14.559-14.559h-160.152c-48.531 0-87.355 38.825-87.355 87.355v9.706h-417.365c-77.649 0-140.739 63.090-140.739 140.739v189.27c0 77.649 63.090 140.739 140.739 140.739h194.123c0 43.678 38.825 77.649 82.502 77.649h169.858c43.678 0 82.502-33.972 82.502-77.649h169.858c24.265 0 38.825 19.412 38.825 38.825v179.564c0 24.265-19.412 38.825-38.825 38.825h-417.365v-9.706c0-48.531-38.825-87.355-87.355-87.355h-160.152c-9.706 0-14.559 9.706-14.559 14.559v19.412h-126.18c-9.706 0-14.559 9.706-14.559 14.559v184.417c0 9.706 9.706 14.559 14.559 14.559h126.18v19.412c0 9.706 9.706 14.559 14.559 14.559h160.152c48.531 0 87.355-38.825 87.355-87.355v-14.559h417.365c77.649 0 140.739-63.090 140.739-140.739v-179.564c-4.853-72.796-67.943-135.886-145.592-135.886v0zM825.024 67.943h106.768v150.445h-106.768v-150.445zM587.223 87.355c0-29.118 24.265-53.384 53.384-53.384h145.592v223.242h-145.592c-29.118 0-53.384-24.265-53.384-53.384v-116.474zM33.972 427.071v-189.27c0-58.237 48.531-106.768 106.768-106.768h417.365v29.118h-417.365c-38.825 0-72.796 33.972-72.796 72.796v189.27c0 38.825 33.972 72.796 72.796 72.796h194.123v29.118h-194.123c-58.237 4.853-106.768-38.825-106.768-97.062v0zM407.659 388.246c0-48.531 38.825-92.209 92.209-92.209 48.531 0 92.209 38.825 92.209 92.209v48.531h-14.559v-43.678c0-43.678-33.972-77.649-77.649-77.649s-77.649 33.972-77.649 77.649v43.678h-14.559v-48.531zM543.545 436.777h-87.355v-43.678c0-24.265 19.412-43.678 43.678-43.678s43.678 19.412 43.678 43.678v43.678zM630.9 558.104c0 29.118-24.265 48.531-48.531 48.531h-169.858c-29.118 0-48.531-24.265-48.531-48.531v-92.209h266.919v92.209zM155.299 951.204h-106.768v-150.445h106.768v150.445zM388.246 931.791c0 29.118-24.265 53.384-53.384 53.384h-145.592v-223.242h145.592c29.118 0 53.384 24.265 53.384 53.384v116.474zM941.498 786.199c0 58.237-48.531 106.768-106.768 106.768h-417.365v-29.118h417.365c38.825 0 72.796-33.972 72.796-72.796v-179.564c0-38.825-33.972-72.796-72.796-72.796h-169.858v-29.118h169.858c58.237 0 106.768 48.531 106.768 106.768v169.858zM941.498 786.199z",
          "M499.867 499.867c-9.706 0-14.559 9.706-14.559 14.559v43.678c0 9.706 9.706 14.559 14.559 14.559 9.706 0 14.559-9.706 14.559-14.559v-43.678c0-4.853-4.853-14.559-14.559-14.559v0zM499.867 499.867z"
        ],
        "attrs": [],
        "width": 975,
        "isMulticolor": false,
        "isMulticolor2": false,
        "grid": 0,
        "tags": [
          "cables"
        ],
        "colorPermutations": {}
      },
      "attrs": [],
      "properties": {
        "order": 8,
        "id": 21,
        "name": "cables",
        "prevSize": 32,
        "code": 59651
      },
      "setIdx": 0,
      "setId": 0,
      "iconIdx": 3
    },
    {
      "icon": {
        "paths": [
          "M1408 0h-1402.88v46.080h117.76v240.64h97.28v97.28h25.6v117.76c0 286.72 235.52 522.24 522.24 522.24s522.24-235.52 522.24-522.24v-117.76h25.6v-97.28h97.28v-240.64h117.76v-46.080h-122.88zM1239.040 501.76c0 261.12-215.040 476.16-476.16 476.16s-476.16-215.040-476.16-476.16v-117.76h952.32v117.76zM1264.64 332.8h-998.4v-46.080h998.4v46.080zM168.96 235.52v-189.44h1192.96v189.44h-1192.96z",
          "M762.88 926.72c117.76 0 215.040-97.28 215.040-215.040s-97.28-215.040-215.040-215.040c-117.76 0-215.040 97.28-215.040 215.040-0 122.88 97.28 215.040 215.040 215.040zM762.88 547.84c92.16 0 168.96 76.8 168.96 168.96s-76.8 168.96-168.96 168.96-168.96-76.8-168.96-168.96c5.12-92.16 76.8-168.96 168.96-168.96z",
          "M762.88 834.56c66.56 0 117.76-51.2 117.76-117.76s-51.2-117.76-117.76-117.76-117.76 51.2-117.76 117.76c0 61.44 51.2 117.76 117.76 117.76zM762.88 645.12c40.96 0 71.68 30.72 71.68 71.68s-30.72 71.68-71.68 71.68-71.68-30.72-71.68-71.68c0-40.96 35.84-71.68 71.68-71.68z",
          "M756.029 753.254l-32.583-32.583 47.065-47.065 32.583 32.583-47.065 47.065z",
          "M645.12 117.76h46.080v46.080h-46.080v-46.080z",
          "M742.4 117.76h46.080v46.080h-46.080v-46.080z",
          "M834.56 117.76h46.080v46.080h-46.080v-46.080z"
        ],
        "attrs": [],
        "width": 1526,
        "isMulticolor": false,
        "isMulticolor2": false,
        "grid": 0,
        "tags": [
          "cctv"
        ],
        "colorPermutations": {}
      },
      "attrs": [],
      "properties": {
        "order": 11,
        "id": 20,
        "name": "cctv",
        "prevSize": 32,
        "code": 59652
      },
      "setIdx": 0,
      "setId": 0,
      "iconIdx": 4
    },
    {
      "icon": {
        "paths": [
          "M19.394 1024c-3.879 0-7.758 0-7.758 0-7.758-3.879-11.636-15.515-7.758-19.394l190.061-457.697h-174.545c-3.879 0-11.636-3.879-15.515-7.758s-3.879-11.636 0-15.515l256-512c3.879-3.879 7.758-7.758 15.515-7.758h271.515c7.758 0 11.636 3.879 15.515 7.758s3.879 11.636 0 15.515l-201.697 314.182h201.697c7.758 0 11.636 3.879 15.515 11.636s0 15.515 0 19.394l-546.909 647.758c-3.879 3.879-7.758 3.879-11.636 3.879zM46.545 512h174.545c3.879 0 11.636 3.879 15.515 7.758s3.879 11.636 0 15.515l-159.030 376.242 449.939-535.273h-197.818c-7.758 0-11.636-3.879-15.515-7.758s-3.879-11.636 0-15.515l201.697-314.182h-232.727l-236.606 473.212z"
        ],
        "attrs": [],
        "width": 582,
        "isMulticolor": false,
        "isMulticolor2": false,
        "grid": 0,
        "tags": [
          "cercos electricos"
        ],
        "colorPermutations": {}
      },
      "attrs": [],
      "properties": {
        "order": 12,
        "id": 19,
        "name": "cercos-electricos",
        "prevSize": 32,
        "code": 59653
      },
      "setIdx": 0,
      "setId": 0,
      "iconIdx": 5
    },
    {
      "icon": {
        "paths": [
          "M415.683 258.535c-86.178 0-162.218 70.97-162.218 162.218v512c0 15.208 15.208 30.416 30.416 30.416s30.416-15.208 30.416-30.416v-512c0-50.693 45.624-96.317 96.317-96.317s96.317 45.624 96.317 96.317c0 15.208 15.208 30.416 30.416 30.416s30.416-15.208 30.416-30.416c10.139-91.248-65.901-162.218-152.079-162.218v0zM415.683 258.535z",
          "M415.683 385.267c-15.208 0-30.416 15.208-30.416 30.416v288.95c0 15.208 15.208 30.416 30.416 30.416s30.416-15.208 30.416-30.416v-288.95c0-15.208-15.208-30.416-30.416-30.416v0zM415.683 385.267z",
          "M415.683 806.020c-15.208 0-30.416 15.208-30.416 30.416v162.218c0 15.208 15.208 30.416 30.416 30.416s30.416-15.208 30.416-30.416v-162.218c0-20.277-15.208-30.416-30.416-30.416v0zM415.683 806.020z",
          "M542.416 517.069c-15.208 0-30.416 15.208-30.416 30.416v385.267c0 15.208 15.208 30.416 30.416 30.416s30.416-15.208 30.416-30.416v-385.267c5.069-20.277-10.139-30.416-30.416-30.416v0zM542.416 517.069z",
          "M157.149 577.901c-15.208 0-30.416 15.208-30.416 30.416v223.050c0 15.208 15.208 30.416 30.416 30.416s30.416-15.208 30.416-30.416v-223.050c5.069-15.208-10.139-30.416-30.416-30.416v0zM157.149 577.901z",
          "M800.95 517.069c-15.208 0-30.416 15.208-30.416 30.416v162.218c0 15.208 15.208 30.416 30.416 30.416s30.416-15.208 30.416-30.416v-162.218c0-20.277-15.208-30.416-30.416-30.416v0zM800.95 517.069z",
          "M643.802 294.020c-15.208 5.069-25.347 25.347-15.208 40.554 10.139 25.347 15.208 55.762 15.208 86.178v415.683c0 15.208 15.208 30.416 30.416 30.416s30.416-15.208 30.416-30.416v-415.683c0-35.485-5.069-76.040-20.277-106.455-10.139-20.277-25.347-30.416-40.554-20.277v0zM643.802 294.020z",
          "M415.683 131.802c-157.149 0-288.95 131.802-288.95 288.95v65.901c0 15.208 15.208 30.416 30.416 30.416s30.416-15.208 30.416-30.416v-65.901c0-121.663 101.386-223.050 223.050-223.050 50.693 0 101.386 15.208 141.941 50.693 15.208 10.139 35.485 10.139 45.624-5.069s10.139-35.485-5.069-45.624c-45.624-45.624-111.525-65.901-177.426-65.901v0zM415.683 131.802z",
          "M273.743 96.317c45.624-20.277 91.248-30.416 141.941-30.416 192.634 0 354.851 157.149 354.851 354.851 0 15.208 15.208 30.416 30.416 30.416s30.416-15.208 30.416-30.416c0-228.119-187.564-415.683-415.683-415.683-55.762 0-116.594 10.139-167.287 35.485-15.208 5.069-25.347 25.347-15.208 40.554 5.069 15.208 25.347 20.277 40.554 15.208v0zM273.743 96.317z",
          "M152.079 136.871c-15.208-10.139-35.485-10.139-45.624 0-70.97 76.040-106.455 177.426-106.455 278.812v288.95c0 15.208 15.208 30.416 30.416 30.416s30.416-15.208 30.416-30.416v-288.95c0-86.178 30.416-172.356 91.248-233.188 10.139-10.139 10.139-30.416-0-45.624v0zM152.079 136.871z"
        ],
        "attrs": [],
        "width": 836,
        "isMulticolor": false,
        "isMulticolor2": false,
        "grid": 0,
        "tags": [
          "control"
        ],
        "colorPermutations": {}
      },
      "attrs": [],
      "properties": {
        "order": 15,
        "id": 18,
        "name": "control",
        "prevSize": 32,
        "code": 59654
      },
      "setIdx": 0,
      "setId": 0,
      "iconIdx": 6
    },
    {
      "icon": {
        "paths": [
          "M181.518 224.925c-23.676 0-43.407-19.73-43.407-43.407s19.73-43.407 43.407-43.407c23.676 0 43.407 19.73 43.407 43.407s-19.73 43.407-43.407 43.407v0zM181.518 224.925z",
          "M885.888 155.869c0 9.865-7.892 17.757-17.757 17.757s-17.757-7.892-17.757-17.757c0-9.865 7.892-17.757 17.757-17.757s17.757 7.892 17.757 17.757v0zM885.888 155.869z",
          "M814.859 155.869c0 9.865-7.892 17.757-17.757 17.757s-17.757-7.892-17.757-17.757c0-9.865 7.892-17.757 17.757-17.757s17.757 7.892 17.757 17.757v0zM814.859 155.869z",
          "M919.43 207.168c0 9.865-7.892 17.757-17.757 17.757s-17.757-7.892-17.757-17.757c0-9.865 7.892-17.757 17.757-17.757 9.865 1.973 17.757 7.892 17.757 17.757v0zM919.43 207.168z",
          "M850.374 207.168c0 9.865-7.892 17.757-17.757 17.757s-17.757-7.892-17.757-17.757c0-9.865 7.892-17.757 17.757-17.757 9.865 1.973 17.757 7.892 17.757 17.757v0zM850.374 207.168z",
          "M745.803 155.869c0 9.865-7.892 17.757-17.757 17.757s-17.757-7.892-17.757-17.757c0-9.865 7.892-17.757 17.757-17.757s17.757 7.892 17.757 17.757v0zM745.803 155.869z",
          "M781.318 207.168c0 9.865-7.892 17.757-17.757 17.757s-17.757-7.892-17.757-17.757c0-9.865 7.892-17.757 17.757-17.757 9.865 1.973 17.757 7.892 17.757 17.757v0zM781.318 207.168z",
          "M676.748 155.869c0 9.865-7.892 17.757-17.757 17.757s-17.757-7.892-17.757-17.757c0-9.865 7.892-17.757 17.757-17.757s17.757 7.892 17.757 17.757v0zM676.748 155.869z",
          "M712.262 207.168c0 9.865-7.892 17.757-17.757 17.757s-17.757-7.892-17.757-17.757c0-9.865 7.892-17.757 17.757-17.757 9.865 1.973 17.757 7.892 17.757 17.757v0zM712.262 207.168z",
          "M607.692 155.869c0 9.865-7.892 17.757-17.757 17.757s-17.757-7.892-17.757-17.757c0-9.865 7.892-17.757 17.757-17.757s17.757 7.892 17.757 17.757v0zM607.692 155.869z",
          "M641.233 207.168c0 9.865-7.892 17.757-17.757 17.757s-17.757-7.892-17.757-17.757c0-9.865 7.892-17.757 17.757-17.757 9.865 1.973 17.757 7.892 17.757 17.757v0zM641.233 207.168z",
          "M1041.757 284.116v-205.195c0-43.407-35.514-80.894-80.894-80.894h-881.942c-43.407 0-80.894 35.514-80.894 80.894v205.195c0 25.649 11.838 47.353 31.568 63.137-17.757 13.811-31.568 37.487-31.568 63.137v205.195c0 25.649 11.838 47.353 31.568 63.137-17.757 13.811-31.568 37.487-31.568 63.137v205.195c0 43.407 35.514 80.894 80.894 80.894h881.942c43.407 0 80.894-35.514 80.894-80.894v-205.195c0-25.649-11.838-47.353-31.568-63.137 17.757-13.811 31.568-37.487 31.568-63.137v-205.195c0-25.649-11.838-47.353-31.568-63.137 19.73-15.784 31.568-37.487 31.568-63.137v0zM1006.243 739.884v205.195c0 25.649-19.73 45.38-45.38 45.38h-881.942c-25.649 0-45.38-19.73-45.38-45.38v-205.195c0-25.649 19.73-45.38 45.38-45.38h881.942c25.649 0 45.38 19.73 45.38 45.38v0zM1006.243 410.389v205.195c0 25.649-19.73 45.38-45.38 45.38h-881.942c-25.649 0-45.38-19.73-45.38-45.38v-205.195c0-25.649 19.73-45.38 45.38-45.38h881.942c25.649 0 45.38 19.73 45.38 45.38v0zM78.921 329.495c-25.649 0-45.38-19.73-45.38-45.38v-205.195c0-25.649 19.73-45.38 45.38-45.38h881.942c25.649 0 45.38 19.73 45.38 45.38v205.195c0 25.649-19.73 45.38-45.38 45.38h-881.942zM78.921 329.495z",
          "M181.518 467.607c23.676 0 43.407 19.73 43.407 43.407s-19.73 43.407-43.407 43.407c-23.676 0-43.407-19.73-43.407-43.407s19.73-43.407 43.407-43.407v0zM181.518 467.607z",
          "M885.888 485.364c0 9.865-7.892 17.757-17.757 17.757s-17.757-7.892-17.757-17.757c0-9.865 7.892-17.757 17.757-17.757s17.757 7.892 17.757 17.757v0zM885.888 485.364z",
          "M814.859 485.364c0 9.865-7.892 17.757-17.757 17.757s-17.757-7.892-17.757-17.757c0-9.865 7.892-17.757 17.757-17.757s17.757 7.892 17.757 17.757v0zM814.859 485.364z",
          "M919.43 538.636c0 9.865-7.892 17.757-17.757 17.757s-17.757-7.892-17.757-17.757c0-9.865 7.892-17.757 17.757-17.757s17.757 7.892 17.757 17.757v0zM919.43 538.636z",
          "M850.374 538.636c0 9.865-7.892 17.757-17.757 17.757s-17.757-7.892-17.757-17.757c0-9.865 7.892-17.757 17.757-17.757s17.757 7.892 17.757 17.757v0zM850.374 538.636z",
          "M745.803 485.364c0 9.865-7.892 17.757-17.757 17.757s-17.757-7.892-17.757-17.757c0-9.865 7.892-17.757 17.757-17.757s17.757 7.892 17.757 17.757v0zM745.803 485.364z",
          "M781.318 538.636c0 9.865-7.892 17.757-17.757 17.757s-17.757-7.892-17.757-17.757c0-9.865 7.892-17.757 17.757-17.757s17.757 7.892 17.757 17.757v0zM781.318 538.636z",
          "M676.748 485.364c0 9.865-7.892 17.757-17.757 17.757s-17.757-7.892-17.757-17.757c0-9.865 7.892-17.757 17.757-17.757s17.757 7.892 17.757 17.757v0zM676.748 485.364z",
          "M712.262 538.636c0 9.865-7.892 17.757-17.757 17.757s-17.757-7.892-17.757-17.757c0-9.865 7.892-17.757 17.757-17.757s17.757 7.892 17.757 17.757v0zM712.262 538.636z",
          "M607.692 485.364c0 9.865-7.892 17.757-17.757 17.757s-17.757-7.892-17.757-17.757c0-9.865 7.892-17.757 17.757-17.757s17.757 7.892 17.757 17.757v0zM607.692 485.364z",
          "M641.233 538.636c0 9.865-7.892 17.757-17.757 17.757s-17.757-7.892-17.757-17.757c0-9.865 7.892-17.757 17.757-17.757s17.757 7.892 17.757 17.757v0zM641.233 538.636z",
          "M181.518 799.075c23.676 0 43.407 19.73 43.407 43.407s-19.73 43.407-43.407 43.407c-23.676 0-43.407-19.73-43.407-43.407s19.73-43.407 43.407-43.407v0zM181.518 799.075z",
          "M885.888 816.832c0 9.865-7.892 17.757-17.757 17.757s-17.757-7.892-17.757-17.757c0-9.865 7.892-17.757 17.757-17.757s17.757 7.892 17.757 17.757v0zM885.888 816.832z",
          "M814.859 816.832c0 9.865-7.892 17.757-17.757 17.757s-17.757-7.892-17.757-17.757c0-9.865 7.892-17.757 17.757-17.757s17.757 7.892 17.757 17.757v0zM814.859 816.832z",
          "M919.43 868.131c0 9.865-7.892 17.757-17.757 17.757s-17.757-7.892-17.757-17.757c0-9.865 7.892-17.757 17.757-17.757s17.757 7.892 17.757 17.757v0zM919.43 868.131z",
          "M850.374 868.131c0 9.865-7.892 17.757-17.757 17.757s-17.757-7.892-17.757-17.757c0-9.865 7.892-17.757 17.757-17.757s17.757 7.892 17.757 17.757v0zM850.374 868.131z",
          "M745.803 816.832c0 9.865-7.892 17.757-17.757 17.757s-17.757-7.892-17.757-17.757c0-9.865 7.892-17.757 17.757-17.757s17.757 7.892 17.757 17.757v0zM745.803 816.832z",
          "M781.318 868.131c0 9.865-7.892 17.757-17.757 17.757s-17.757-7.892-17.757-17.757c0-9.865 7.892-17.757 17.757-17.757s17.757 7.892 17.757 17.757v0zM781.318 868.131z",
          "M676.748 816.832c0 9.865-7.892 17.757-17.757 17.757s-17.757-7.892-17.757-17.757c0-9.865 7.892-17.757 17.757-17.757s17.757 7.892 17.757 17.757v0zM676.748 816.832z",
          "M712.262 868.131c0 9.865-7.892 17.757-17.757 17.757s-17.757-7.892-17.757-17.757c0-9.865 7.892-17.757 17.757-17.757s17.757 7.892 17.757 17.757v0zM712.262 868.131z",
          "M607.692 816.832c0 9.865-7.892 17.757-17.757 17.757s-17.757-7.892-17.757-17.757c0-9.865 7.892-17.757 17.757-17.757s17.757 7.892 17.757 17.757v0zM607.692 816.832z",
          "M641.233 868.131c0 9.865-7.892 17.757-17.757 17.757s-17.757-7.892-17.757-17.757c0-9.865 7.892-17.757 17.757-17.757s17.757 7.892 17.757 17.757v0zM641.233 868.131z"
        ],
        "attrs": [
          {
            "fill": "rgb(231, 43, 30)"
          },
          {
            "fill": "rgb(133, 135, 137)"
          },
          {
            "fill": "rgb(133, 135, 137)"
          },
          {
            "fill": "rgb(133, 135, 137)"
          },
          {
            "fill": "rgb(133, 135, 137)"
          },
          {
            "fill": "rgb(133, 135, 137)"
          },
          {
            "fill": "rgb(133, 135, 137)"
          },
          {
            "fill": "rgb(133, 135, 137)"
          },
          {
            "fill": "rgb(133, 135, 137)"
          },
          {
            "fill": "rgb(133, 135, 137)"
          },
          {
            "fill": "rgb(133, 135, 137)"
          },
          {
            "fill": "rgb(133, 135, 137)"
          },
          {
            "fill": "rgb(231, 43, 30)"
          },
          {
            "fill": "rgb(133, 135, 137)"
          },
          {
            "fill": "rgb(133, 135, 137)"
          },
          {
            "fill": "rgb(133, 135, 137)"
          },
          {
            "fill": "rgb(133, 135, 137)"
          },
          {
            "fill": "rgb(133, 135, 137)"
          },
          {
            "fill": "rgb(133, 135, 137)"
          },
          {
            "fill": "rgb(133, 135, 137)"
          },
          {
            "fill": "rgb(133, 135, 137)"
          },
          {
            "fill": "rgb(133, 135, 137)"
          },
          {
            "fill": "rgb(133, 135, 137)"
          },
          {
            "fill": "rgb(231, 43, 30)"
          },
          {
            "fill": "rgb(133, 135, 137)"
          },
          {
            "fill": "rgb(133, 135, 137)"
          },
          {
            "fill": "rgb(133, 135, 137)"
          },
          {
            "fill": "rgb(133, 135, 137)"
          },
          {
            "fill": "rgb(133, 135, 137)"
          },
          {
            "fill": "rgb(133, 135, 137)"
          },
          {
            "fill": "rgb(133, 135, 137)"
          },
          {
            "fill": "rgb(133, 135, 137)"
          },
          {
            "fill": "rgb(133, 135, 137)"
          },
          {
            "fill": "rgb(133, 135, 137)"
          }
        ],
        "width": 1042,
        "isMulticolor": true,
        "isMulticolor2": false,
        "grid": 0,
        "tags": [
          "disco"
        ],
        "colorPermutations": {
          "109110112113313513712042062071222001231433018889911": [
            {
              "f": 3
            },
            {
              "f": 4
            },
            {
              "f": 4
            },
            {
              "f": 4
            },
            {
              "f": 4
            },
            {
              "f": 4
            },
            {
              "f": 4
            },
            {
              "f": 4
            },
            {
              "f": 4
            },
            {
              "f": 4
            },
            {
              "f": 4
            },
            {
              "f": 4
            },
            {
              "f": 3
            },
            {
              "f": 4
            },
            {
              "f": 4
            },
            {
              "f": 4
            },
            {
              "f": 4
            },
            {
              "f": 4
            },
            {
              "f": 4
            },
            {
              "f": 4
            },
            {
              "f": 4
            },
            {
              "f": 4
            },
            {
              "f": 4
            },
            {
              "f": 3
            },
            {
              "f": 4
            },
            {
              "f": 4
            },
            {
              "f": 4
            },
            {
              "f": 4
            },
            {
              "f": 4
            },
            {
              "f": 4
            },
            {
              "f": 4
            },
            {
              "f": 4
            },
            {
              "f": 4
            },
            {
              "f": 4
            }
          ]
        }
      },
      "attrs": [
        {
          "fill": "rgb(231, 43, 30)"
        },
        {
          "fill": "rgb(133, 135, 137)"
        },
        {
          "fill": "rgb(133, 135, 137)"
        },
        {
          "fill": "rgb(133, 135, 137)"
        },
        {
          "fill": "rgb(133, 135, 137)"
        },
        {
          "fill": "rgb(133, 135, 137)"
        },
        {
          "fill": "rgb(133, 135, 137)"
        },
        {
          "fill": "rgb(133, 135, 137)"
        },
        {
          "fill": "rgb(133, 135, 137)"
        },
        {
          "fill": "rgb(133, 135, 137)"
        },
        {
          "fill": "rgb(133, 135, 137)"
        },
        {
          "fill": "rgb(133, 135, 137)"
        },
        {
          "fill": "rgb(231, 43, 30)"
        },
        {
          "fill": "rgb(133, 135, 137)"
        },
        {
          "fill": "rgb(133, 135, 137)"
        },
        {
          "fill": "rgb(133, 135, 137)"
        },
        {
          "fill": "rgb(133, 135, 137)"
        },
        {
          "fill": "rgb(133, 135, 137)"
        },
        {
          "fill": "rgb(133, 135, 137)"
        },
        {
          "fill": "rgb(133, 135, 137)"
        },
        {
          "fill": "rgb(133, 135, 137)"
        },
        {
          "fill": "rgb(133, 135, 137)"
        },
        {
          "fill": "rgb(133, 135, 137)"
        },
        {
          "fill": "rgb(231, 43, 30)"
        },
        {
          "fill": "rgb(133, 135, 137)"
        },
        {
          "fill": "rgb(133, 135, 137)"
        },
        {
          "fill": "rgb(133, 135, 137)"
        },
        {
          "fill": "rgb(133, 135, 137)"
        },
        {
          "fill": "rgb(133, 135, 137)"
        },
        {
          "fill": "rgb(133, 135, 137)"
        },
        {
          "fill": "rgb(133, 135, 137)"
        },
        {
          "fill": "rgb(133, 135, 137)"
        },
        {
          "fill": "rgb(133, 135, 137)"
        },
        {
          "fill": "rgb(133, 135, 137)"
        }
      ],
      "properties": {
        "order": 28,
        "id": 17,
        "name": "disco",
        "prevSize": 32,
        "code": 59664,
        "codes": [
          59664,
          59665,
          59666,
          59667,
          59668,
          59669,
          59670,
          59671,
          59672,
          59673,
          59674,
          59675,
          59676,
          59677,
          59678,
          59679,
          59680,
          59681,
          59682,
          59683,
          59684,
          59685,
          59686,
          59687,
          59688,
          59689,
          59690,
          59691,
          59692,
          59693,
          59694,
          59695,
          59696,
          59697
        ]
      },
      "setIdx": 0,
      "setId": 0,
      "iconIdx": 7
    },
    {
      "icon": {
        "paths": [
          "M583.776 486.161c3.828 5.742 9.57 9.57 15.312 9.57 1.914 0 5.742 0 7.656-1.914 1.914 0 101.443-51.679 151.207-66.991 9.57-1.914 13.398-13.398 11.484-21.054-1.914-9.57-11.484-13.398-21.054-11.484-51.679 17.226-151.207 66.991-156.95 68.905-9.57 5.742-13.398 15.312-7.656 22.968v0zM583.776 486.161z",
          "M599.088 290.931c1.914 0 5.742 0 7.656-1.914 1.914 0 101.443-51.679 151.207-66.991 9.57-1.914 13.398-13.398 11.484-21.054-1.914-9.57-11.484-13.398-21.054-11.484-51.679 17.226-151.207 66.991-156.95 68.905-7.656 3.828-11.484 15.312-7.656 22.968 1.914 5.742 7.656 9.57 15.312 9.57v0zM599.088 290.931z",
          "M1008.688 256.479c-9.57 0-17.226 7.656-17.226 17.226v666.079c0 28.71-22.968 51.679-51.679 51.679h-409.6v-40.194c24.882-9.57 89.959-28.71 153.121-28.71 149.293 0 250.736 32.538 250.736 32.538 5.742 1.914 11.484 0 15.312-1.914 3.828-3.828 7.656-7.656 7.656-13.398v-752.209c0-7.656-5.742-15.312-13.398-17.226 0 0-13.398-3.828-36.366-7.656-9.57-1.914-17.226 3.828-19.14 13.398s3.828 19.14 13.398 19.14c9.57 1.914 15.312 3.828 21.054 3.828v713.929c-38.28-9.57-124.411-28.71-239.252-28.71-74.647 0-147.379 24.882-170.348 32.538-21.054-9.57-80.389-32.538-155.036-32.538-116.755 0-214.37 19.14-256.479 28.71v-715.843c34.452-7.656 133.981-30.624 256.479-30.624 63.163 0 114.841 19.14 135.895 28.71v671.821c0 5.742 3.828 11.484 9.57 15.312s11.484 3.828 17.226 0c1.914-1.914 170.348-101.443 321.555-151.207 7.656-1.914 11.484-9.57 11.484-15.312v-700.531c0-5.742-1.914-11.484-7.656-13.398-3.828-3.828-9.57-3.828-15.312-1.914-135.895 51.679-275.619 137.809-275.619 137.809-7.656 5.742-9.57 15.312-5.742 22.968 5.742 7.656 15.312 9.57 22.968 5.742 1.914 0 122.497-76.561 246.908-126.325v662.25c-116.755 40.194-239.252 107.185-290.931 135.895v-652.68c0-5.742-3.828-11.484-9.57-15.312-3.828-1.914-72.733-36.366-160.778-36.366-155.036 0-273.705 32.538-277.533 34.452-7.656 1.914-11.484 9.57-11.484 17.226v752.209c0 5.742 1.914 9.57 7.656 13.398 3.828 1.914 5.742 3.828 9.57 3.828 1.914 0 3.828 0 3.828 0 1.914 0 118.669-32.538 267.963-32.538 63.163 0 114.841 19.14 135.895 28.71v40.194h-409.6c-28.71 0-51.679-22.968-51.679-51.679v-666.079c0-9.57-7.656-17.226-17.226-17.226s-17.226 7.656-17.226 17.226v666.079c0 47.85 38.28 86.131 86.131 86.131h853.652c47.85 0 86.131-38.28 86.131-86.131v-666.079c1.914-9.57-5.742-17.226-15.312-17.226v0zM1008.688 256.479z",
          "M583.776 384.718c3.828 5.742 9.57 9.57 15.312 9.57 1.914 0 5.742 0 7.656-1.914 1.914 0 101.443-51.679 151.207-66.991 9.57-1.914 13.398-13.398 11.484-21.054-1.914-9.57-11.484-13.398-21.054-11.484-51.679 17.226-151.207 66.991-156.95 68.905-9.57 3.828-13.398 13.398-7.656 22.968v0zM583.776 384.718z",
          "M583.776 589.518c3.828 5.742 9.57 9.57 15.312 9.57 1.914 0 5.742 0 7.656-1.914 1.914 0 101.443-51.679 151.207-66.991 9.57-1.914 13.398-13.398 11.484-21.054-1.914-9.57-11.484-13.398-21.054-11.484-51.679 17.226-151.207 66.991-156.95 68.905-9.57 3.828-13.398 13.398-7.656 22.968v0zM583.776 589.518z",
          "M413.428 317.727c-105.271-24.882-225.854 7.656-229.682 7.656-9.57 1.914-15.312 11.484-11.484 21.054 1.914 7.656 9.57 13.398 17.226 13.398 1.914 0 3.828 0 3.828 0 1.914 0 116.755-30.624 214.37-7.656 9.57 1.914 19.14-3.828 21.054-13.398 0-9.57-5.742-19.14-15.312-21.054v0zM413.428 317.727z",
          "M413.428 421.084c-105.271-24.882-225.854 7.656-229.682 7.656-9.57 1.914-15.312 11.484-11.484 21.054 1.914 7.656 9.57 13.398 17.226 13.398 1.914 0 3.828 0 3.828 0 1.914 0 116.755-30.624 214.37-7.656 9.57 1.914 19.14-3.828 21.054-13.398 0-11.484-5.742-19.14-15.312-21.054v0zM413.428 421.084z",
          "M583.776 690.961c3.828 5.742 9.57 9.57 15.312 9.57 1.914 0 5.742 0 7.656-1.914 1.914 0 101.443-51.679 151.207-66.991 9.57-1.914 13.398-13.398 11.484-21.054-1.914-9.57-11.484-13.398-21.054-11.484-51.679 17.226-151.207 66.991-156.95 68.905-9.57 5.742-13.398 15.312-7.656 22.968v0zM583.776 690.961z",
          "M413.428 522.527c-105.271-24.882-225.854 7.656-229.682 7.656-9.57 1.914-15.312 11.484-11.484 21.054 1.914 7.656 9.57 13.398 17.226 13.398 1.914 0 3.828 0 3.828 0 1.914 0 116.755-30.624 214.37-7.656 9.57 1.914 19.14-3.828 21.054-13.398 0-9.57-5.742-19.14-15.312-21.054v0zM413.428 522.527z",
          "M413.428 727.327c-105.271-24.882-225.854 7.656-229.682 7.656-9.57 1.914-15.312 11.484-11.484 21.054 1.914 7.656 9.57 13.398 17.226 13.398 1.914 0 3.828 0 3.828 0 1.914 0 116.755-30.624 214.37-7.656 9.57 1.914 19.14-3.828 21.054-13.398 0-9.57-5.742-19.14-15.312-21.054v0zM413.428 727.327z",
          "M413.428 625.884c-105.271-24.882-225.854 7.656-229.682 7.656-9.57 1.914-15.312 11.484-11.484 21.054 1.914 7.656 9.57 13.398 17.226 13.398 1.914 0 3.828 0 3.828 0 1.914 0 116.755-30.624 214.37-7.656 9.57 1.914 19.14-3.828 21.054-13.398 0-9.57-5.742-19.14-15.312-21.054v0zM413.428 625.884z"
        ],
        "attrs": [
          {
            "fill": "rgb(133, 135, 137)"
          },
          {
            "fill": "rgb(133, 135, 137)"
          },
          {
            "fill": "rgb(133, 135, 137)"
          },
          {
            "fill": "rgb(133, 135, 137)"
          },
          {
            "fill": "rgb(133, 135, 137)"
          },
          {
            "fill": "rgb(222, 0, 0)"
          },
          {
            "fill": "rgb(133, 135, 137)"
          },
          {
            "fill": "rgb(133, 135, 137)"
          },
          {
            "fill": "rgb(133, 135, 137)"
          },
          {
            "fill": "rgb(133, 135, 137)"
          },
          {
            "fill": "rgb(133, 135, 137)"
          }
        ],
        "isMulticolor": true,
        "isMulticolor2": false,
        "grid": 0,
        "tags": [
          "educacion"
        ],
        "colorPermutations": {
          "109110112113313513712042062071222001231433018889911": [
            {
              "f": 4
            },
            {
              "f": 4
            },
            {
              "f": 4
            },
            {
              "f": 4
            },
            {
              "f": 4
            },
            {
              "f": 2
            },
            {
              "f": 4
            },
            {
              "f": 4
            },
            {
              "f": 4
            },
            {
              "f": 4
            },
            {
              "f": 4
            }
          ]
        }
      },
      "attrs": [
        {
          "fill": "rgb(133, 135, 137)"
        },
        {
          "fill": "rgb(133, 135, 137)"
        },
        {
          "fill": "rgb(133, 135, 137)"
        },
        {
          "fill": "rgb(133, 135, 137)"
        },
        {
          "fill": "rgb(133, 135, 137)"
        },
        {
          "fill": "rgb(222, 0, 0)"
        },
        {
          "fill": "rgb(133, 135, 137)"
        },
        {
          "fill": "rgb(133, 135, 137)"
        },
        {
          "fill": "rgb(133, 135, 137)"
        },
        {
          "fill": "rgb(133, 135, 137)"
        },
        {
          "fill": "rgb(133, 135, 137)"
        }
      ],
      "properties": {
        "order": 29,
        "id": 16,
        "name": "educacion",
        "prevSize": 32,
        "code": 59698,
        "codes": [
          59698,
          59699,
          59700,
          59701,
          59702,
          59703,
          59704,
          59705,
          59706,
          59707,
          59708
        ]
      },
      "setIdx": 0,
      "setId": 0,
      "iconIdx": 8
    },
    {
      "icon": {
        "paths": [
          "M456.411 514.926h-140.434v514.926h-193.097v-514.926h-128.731v-175.543h128.731v-105.326c0-146.286 40.96-234.057 210.651-234.057h140.434v175.543h-87.771c-64.366 0-70.217 23.406-70.217 70.217v87.771h157.989l-17.554 181.394z"
        ],
        "attrs": [],
        "width": 480,
        "isMulticolor": false,
        "isMulticolor2": false,
        "grid": 0,
        "tags": [
          "facebook"
        ],
        "colorPermutations": {}
      },
      "attrs": [],
      "properties": {
        "order": 32,
        "id": 15,
        "name": "facebook",
        "prevSize": 32,
        "code": 59709
      },
      "setIdx": 0,
      "setId": 0,
      "iconIdx": 9
    },
    {
      "icon": {
        "paths": [
          "M87.415 1024c-24.976 0-62.439-12.488-74.927-37.463-24.976-37.463-24.976-99.902 24.976-124.878l424.585-299.707-424.585-387.122c-37.463-37.463-37.463-99.902 0-137.366s99.902-37.463 137.366 0l512 474.537c24.976 24.976 37.463 49.951 24.976 74.927s-12.488 49.951-37.463 74.927l-524.488 362.146c-24.976-12.488-37.463 0-62.439 0z"
        ],
        "attrs": [],
        "width": 712,
        "isMulticolor": false,
        "isMulticolor2": false,
        "grid": 0,
        "tags": [
          "flecha derecha"
        ],
        "colorPermutations": {}
      },
      "attrs": [],
      "properties": {
        "order": 33,
        "id": 14,
        "name": "flecha-derecha",
        "prevSize": 32,
        "code": 59710
      },
      "setIdx": 0,
      "setId": 0,
      "iconIdx": 10
    },
    {
      "icon": {
        "paths": [
          "M611.902 1024c24.976 0 62.439-12.488 74.927-37.463 24.976-37.463 24.976-99.902-24.976-124.878l-424.585-299.707 424.585-387.122c37.463-37.463 37.463-99.902 0-137.366s-99.902-37.463-137.366 0l-512 474.537c-24.976 24.976-37.463 49.951-24.976 74.927s12.488 49.951 37.463 74.927l524.488 362.146c24.976-12.488 49.951 0 62.439 0z"
        ],
        "attrs": [],
        "width": 712,
        "isMulticolor": false,
        "isMulticolor2": false,
        "grid": 0,
        "tags": [
          "flechaizquierda"
        ],
        "colorPermutations": {}
      },
      "attrs": [],
      "properties": {
        "order": 34,
        "id": 13,
        "name": "flechaizquierda",
        "prevSize": 32,
        "code": 59711
      },
      "setIdx": 0,
      "setId": 0,
      "iconIdx": 11
    },
    {
      "icon": {
        "paths": [
          "M803.31 825.379h-13.241v-295.724c0-172.138-136.828-308.966-308.966-308.966s-308.966 136.828-308.966 308.966v295.724h-13.241c-57.379 0-105.931 48.552-105.931 105.931v92.69h851.862v-92.69c4.414-61.793-44.138-105.931-101.517-105.931zM233.931 525.241c0-136.828 110.345-247.172 247.172-247.172s247.172 110.345 247.172 247.172v295.724h-494.345v-295.724zM847.448 962.207h-732.69v-35.31c0-26.483 22.069-44.138 44.138-44.138h644.414c26.483 0 44.138 22.069 44.138 44.138v35.31z",
          "M454.621 0h61.793v172.138h-61.793v-172.138z",
          "M702.413 251.038l121.719-121.719 43.694 43.694-121.719 121.719-43.694-43.694z",
          "M220.793 290.362l-121.719-121.719 43.694-43.694 121.719 121.719-43.694 43.694z",
          "M326.517 208.388l-65.877-159.038 57.091-23.648 65.877 159.038-57.091 23.648z",
          "M640.011 208.147l-57.091-23.648 65.877-159.038 57.091 23.648-65.877 159.038z",
          "M784.953 354.008l159.038-65.877 23.648 57.091-159.038 65.877-23.648-57.091z",
          "M156.394 408.655l-159.038-65.877 23.648-57.091 159.038 65.877-23.648 57.091z"
        ],
        "attrs": [],
        "width": 971,
        "isMulticolor": false,
        "isMulticolor2": false,
        "grid": 0,
        "tags": [
          "iluminacion"
        ],
        "colorPermutations": {}
      },
      "attrs": [],
      "properties": {
        "order": 36,
        "id": 12,
        "name": "iluminacion",
        "prevSize": 32,
        "code": 59712
      },
      "setIdx": 0,
      "setId": 0,
      "iconIdx": 12
    },
    {
      "icon": {
        "paths": [
          "M649.463 187.268l-15.938-19.922-79.689 95.626-147.424-266.957-147.424 266.957-79.689-95.626-15.938 19.922c-107.58 119.533-167.346 270.942-167.346 430.319 0 223.128 183.284 406.412 406.412 406.412s406.412-183.284 406.412-406.412c7.969-159.377-51.798-310.786-159.377-430.319zM410.397 984.156c-91.642 0-167.346-75.704-167.346-167.346 0-63.751 19.922-123.518 59.767-171.331l43.829 51.798 67.735-119.533 67.735 119.533 43.829-51.798c35.86 47.813 59.767 111.564 59.767 171.331-7.969 91.642-83.673 167.346-175.315 167.346zM565.79 948.296c31.875-35.86 47.813-83.673 47.813-131.486 0-79.689-27.891-155.393-83.673-215.16l-15.938-15.938-35.86 43.829-71.72-131.486-71.72 131.486-35.86-43.829-15.938 15.938c-51.798 59.767-83.673 135.471-83.673 215.16 0 51.798 19.922 95.626 47.813 131.486-123.518-59.767-207.191-183.284-207.191-330.708 0-139.455 47.813-274.926 139.455-386.49l87.658 107.58 139.455-255.004 139.455 255.004 87.658-107.58c91.642 107.58 139.455 243.051 139.455 386.49 0 147.424-83.673 270.942-207.191 330.708z"
        ],
        "attrs": [],
        "width": 817,
        "isMulticolor": false,
        "isMulticolor2": false,
        "grid": 0,
        "tags": [
          "incendio"
        ],
        "colorPermutations": {}
      },
      "attrs": [],
      "properties": {
        "order": 5,
        "id": 11,
        "name": "incendio",
        "prevSize": 32,
        "code": 59655
      },
      "setIdx": 0,
      "setId": 0,
      "iconIdx": 13
    },
    {
      "icon": {
        "paths": [
          "M510.253 1024c-283.085 0-513.747-230.662-513.747-513.747s230.662-513.747 513.747-513.747c283.085 0 513.747 230.662 513.747 513.747s-230.662 513.747-513.747 513.747zM510.253 31.454c-265.611 0-482.294 216.683-482.294 482.294s216.683 482.294 482.294 482.294 482.294-216.683 482.294-482.294-216.683-482.294-482.294-482.294z",
          "M510.253 852.751c-188.724 0-339.003-153.775-339.003-339.003s153.775-339.003 339.003-339.003 339.003 153.775 339.003 339.003-150.28 339.003-339.003 339.003zM510.253 202.703c-171.249 0-311.044 139.795-311.044 311.044s139.795 311.044 311.044 311.044 311.044-139.795 311.044-311.044-139.795-311.044-311.044-311.044z",
          "M604.614 513.747c0 52.115-42.247 94.362-94.362 94.362s-94.362-42.247-94.362-94.362c0-52.115 42.247-94.362 94.362-94.362s94.362 42.247 94.362 94.362z"
        ],
        "attrs": [
          {
            "fill": "rgb(133, 135, 137)"
          },
          {
            "fill": "rgb(133, 135, 137)"
          },
          {
            "fill": "rgb(231, 43, 30)"
          }
        ],
        "isMulticolor": true,
        "isMulticolor2": false,
        "grid": 0,
        "tags": [
          "lente"
        ],
        "colorPermutations": {
          "109110112113313513712042062071222001231433018889911": [
            {
              "f": 4
            },
            {
              "f": 4
            },
            {
              "f": 3
            }
          ]
        }
      },
      "attrs": [
        {
          "fill": "rgb(133, 135, 137)"
        },
        {
          "fill": "rgb(133, 135, 137)"
        },
        {
          "fill": "rgb(231, 43, 30)"
        }
      ],
      "properties": {
        "order": 4,
        "id": 10,
        "name": "lente",
        "prevSize": 32,
        "code": 59656,
        "codes": [
          59656,
          59657,
          59658
        ]
      },
      "setIdx": 0,
      "setId": 0,
      "iconIdx": 14
    },
    {
      "icon": {
        "paths": [
          "M1163.393 793.466c-5.361 0-10.723 0-16.084-5.361l-268.063-251.979c-10.723-10.723-10.723-21.445 0-32.168s21.445-10.723 32.168 0l268.063 251.979c10.723 10.723 10.723 21.445 0 32.168 0 0-5.361 5.361-16.084 5.361v0zM1163.393 793.466z",
          "M273.424 793.466c-5.361 0-10.723 0-16.084-5.361-10.723-10.723-10.723-21.445 0-32.168l268.063-251.979c10.723-10.723 26.806-10.723 32.168 0 10.723 10.723 10.723 21.445 0 32.168l-268.063 251.979c-5.361 0-10.723 5.361-16.084 5.361v0zM273.424 793.466z",
          "M1324.23 1024h-1206.283c-64.335 0-117.948-53.613-117.948-117.948v-793.466c0-64.335 53.613-117.948 117.948-117.948h1206.283c64.335 0 117.948 53.613 117.948 117.948v798.827c0 64.335-53.613 112.586-117.948 112.586v0zM112.586 48.251c-37.529 0-69.696 32.168-69.696 69.696v793.466c0 37.529 32.168 69.696 69.696 69.696h1206.283c37.529 0 69.696-32.168 69.696-69.696v-793.466c0-37.529-32.168-69.696-69.696-69.696h-1206.283zM112.586 48.251z",
          "M718.408 632.628c-32.168 0-64.335-10.723-85.78-32.168l-595.099-520.042c-10.723-10.723-10.723-21.445 0-32.168s21.445-10.723 32.168 0l595.099 520.042c32.168 26.806 80.419 26.806 107.225 0l595.099-520.042c10.723-10.723 26.806-5.361 32.168 0 10.723 10.723 5.361 26.806 0 32.168l-595.099 520.042c-21.445 21.445-53.613 32.168-85.78 32.168v0zM718.408 632.628z"
        ],
        "attrs": [],
        "width": 1442,
        "isMulticolor": false,
        "isMulticolor2": false,
        "grid": 0,
        "tags": [
          "mensaje"
        ],
        "colorPermutations": {}
      },
      "attrs": [],
      "properties": {
        "order": 6,
        "id": 9,
        "name": "mensaje",
        "prevSize": 32,
        "code": 59659
      },
      "setIdx": 0,
      "setId": 0,
      "iconIdx": 15
    },
    {
      "icon": {
        "paths": [
          "M269.241 622.345l26.483-30.897c22.069 26.483 57.379 48.552 105.931 48.552 61.793 0 79.448-30.897 79.448-57.379 0-88.276-198.621-39.724-198.621-158.897 0-57.379 48.552-92.69 114.759-92.69 52.966 0 92.69 17.655 119.172 48.552l-26.483 30.897c-26.483-26.483-61.793-39.724-97.103-39.724-39.724 0-70.621 22.069-70.621 52.966 0 75.034 198.621 30.897 198.621 158.897 0 48.552-35.31 101.517-123.586 101.517-57.379-8.828-97.103-30.897-128-61.793z",
          "M560.552 679.724l119.172-357.517h30.897l-119.172 357.517h-30.897z",
          "M485.517 1024v0c-13.241 0-26.483-4.414-39.724-17.655l-48.552-61.793c-22.069-30.897-61.793-44.138-101.517-30.897l-75.034 22.069c-13.241 4.414-30.897 0-39.724-8.828-13.241-8.828-17.655-22.069-22.069-35.31l-4.414-75.034c0-39.724-26.483-70.621-61.793-83.862l-70.621-26.483c-13.241-4.414-22.069-17.655-30.897-30.897-4.414-13.241-4.414-30.897 4.414-39.724l39.724-66.207c22.069-30.897 22.069-75.034 0-105.931l-39.724-66.207c-8.828-13.241-8.828-26.483-4.414-39.724s13.241-26.483 30.897-30.897l70.621-26.483c35.31-13.241 61.793-48.552 61.793-83.862l4.414-75.034c0-13.241 8.828-26.483 22.069-35.31s26.483-13.241 39.724-8.828l75.034 22.069c35.31 8.828 75.034-4.414 101.517-30.897l48.552-61.793c8.828-13.241 22.069-17.655 39.724-17.655s26.483 4.414 39.724 17.655l48.552 61.793c22.069 30.897 61.793 44.138 101.517 30.897l75.034-22.069c13.241-4.414 30.897 0 39.724 8.828 13.241 8.828 17.655 22.069 22.069 35.31l4.414 75.034c0 39.724 26.483 70.621 61.793 83.862l70.621 26.483c13.241 4.414 22.069 17.655 30.897 30.897 4.414 13.241 4.414 30.897-4.414 39.724l-39.724 66.207c-22.069 30.897-22.069 75.034 0 105.931l39.724 66.207c8.828 13.241 8.828 26.483 4.414 39.724s-13.241 26.483-30.897 30.897l-70.621 26.483c-35.31 13.241-61.793 48.552-61.793 83.862l-4.414 75.034c0 13.241-8.828 26.483-22.069 35.31s-26.483 13.241-39.724 8.828l-75.034-22.069c-35.31-8.828-75.034 4.414-101.517 30.897l-48.552 61.793c-8.828 8.828-22.069 17.655-39.724 17.655zM326.621 882.759c35.31 0 70.621 17.655 97.103 44.138l48.552 61.793c4.414 4.414 8.828 8.828 17.655 8.828 4.414 0 13.241-4.414 17.655-8.828l48.552-61.793c30.897-39.724 79.448-52.966 128-39.724l75.034 22.069c4.414 0 13.241 0 17.655-4.414s8.828-8.828 8.828-17.655l4.414-75.034c4.414-48.552 35.31-92.69 79.448-110.345l70.621-26.483c4.414-4.414 8.828-8.828 13.241-13.241 0-4.414 0-13.241-4.414-17.655l-39.724-66.207c-26.483-39.724-26.483-92.69 0-132.414l39.724-66.207c4.414-4.414 4.414-13.241 4.414-17.655s-4.414-8.828-13.241-13.241l-70.621-26.483c-44.138-17.655-75.034-61.793-79.448-110.345l-4.414-75.034c0-4.414-4.414-13.241-8.828-17.655s-13.241-4.414-17.655-4.414l-75.034 22.069c-48.552 13.241-97.103-4.414-128-39.724l-48.552-61.793c-4.414-4.414-8.828-8.828-17.655-8.828-4.414 0-13.241 4.414-17.655 8.828l-48.552 61.793c-30.897 39.724-79.448 52.966-128 39.724l-75.034-22.069c-4.414 0-13.241 0-17.655 4.414s-8.828 8.828-8.828 17.655l-4.414 75.034c-4.414 48.552-35.31 92.69-79.448 110.345l-70.621 26.483c-4.414 4.414-8.828 8.828-13.241 13.241 0 4.414 0 13.241 4.414 17.655l39.724 66.207c26.483 39.724 26.483 92.69 0 132.414l-39.724 66.207c-4.414 4.414-4.414 13.241-4.414 17.655s4.414 8.828 13.241 13.241l70.621 26.483c44.138 17.655 75.034 61.793 79.448 110.345l4.414 75.034c0 4.414 4.414 13.241 8.828 17.655s13.241 4.414 17.655 4.414l75.034-22.069c8.828-4.414 22.069-4.414 30.897-4.414z"
        ],
        "attrs": [],
        "width": 980,
        "isMulticolor": false,
        "isMulticolor2": false,
        "grid": 0,
        "tags": [
          "precios"
        ],
        "colorPermutations": {}
      },
      "attrs": [],
      "properties": {
        "order": 9,
        "id": 8,
        "name": "precios",
        "prevSize": 32,
        "code": 59660
      },
      "setIdx": 0,
      "setId": 0,
      "iconIdx": 16
    },
    {
      "icon": {
        "paths": [
          "M489.739 912.696h-53.426c-4.452-22.261-26.713-44.522-48.974-48.974v-427.409c31.165-8.904 48.974-31.165 48.974-62.33 0-35.617-31.165-66.783-66.783-66.783s-66.783 31.165-66.783 66.783c0 31.165 22.261 57.878 48.974 62.33v427.409c-22.261 4.452-44.522 26.713-48.974 48.974h-53.426c-26.713 0-48.974 22.261-48.974 48.974v48.974c0 8.904 8.904 17.809 17.809 17.809h302.748c8.904 0 17.809-8.904 17.809-17.809v-48.974c0-26.713-22.261-48.974-48.974-48.974v0zM333.913 369.53c0-17.809 13.357-35.617 35.617-35.617 17.809 0 35.617 13.357 35.617 35.617 0 17.809-13.357 35.617-35.617 35.617-17.809 0-35.617-13.357-35.617-35.617v0zM369.53 890.435c13.357 0 26.713 8.904 31.165 17.809h-62.33c8.904-8.904 17.809-17.809 31.165-17.809v0zM507.548 992.835h-271.583v-35.617c0-8.904 8.904-17.809 17.809-17.809h235.965c8.904 0 17.809 8.904 17.809 17.809v35.617zM507.548 992.835z",
          "M369.53 0c-204.8 0-369.53 164.73-369.53 369.53 0 80.139 26.713 160.278 75.687 222.609s115.757 106.852 186.991 129.113c8.904 4.452 17.809-4.452 17.809-8.904 4.452-8.904-4.452-17.809-8.904-17.809-66.783-22.261-129.113-62.33-173.635-120.209s-66.783-129.113-66.783-204.8c0-186.991 151.374-338.365 338.365-338.365s338.365 151.374 338.365 338.365c0 75.687-22.261 142.47-66.783 204.8-44.522 57.878-102.4 97.948-173.635 120.209-8.904 4.452-13.357 13.357-8.904 17.809 0 8.904 8.904 13.357 13.357 13.357 0 0 4.452 0 4.452 0 75.687-22.261 142.47-66.783 186.991-129.113 48.974-62.33 75.687-142.47 75.687-222.609 0-204.8-164.73-373.983-369.53-373.983v0zM369.53 0z",
          "M369.53 235.965c75.687 0 133.565 62.33 133.565 133.565 0 40.070-17.809 75.687-44.522 102.4-4.452 4.452-8.904 17.809 0 22.261 4.452 4.452 8.904 4.452 13.357 4.452s8.904 0 8.904-4.452c35.617-31.165 57.878-75.687 57.878-124.661 0-93.496-75.687-169.183-169.183-169.183s-169.183 75.687-169.183 169.183c0 48.974 22.261 93.496 57.878 124.661 4.452 4.452 17.809 4.452 22.261 0s4.452-17.809 0-22.261c-26.713-26.713-44.522-62.33-44.522-102.4 0-71.235 57.878-133.565 133.565-133.565v0zM369.53 235.965z",
          "M471.93 618.852c0 0 4.452 0 4.452 0 97.948-44.522 160.278-138.017 160.278-244.87 0-146.922-120.209-267.13-267.13-267.13s-267.13 120.209-267.13 267.13c0 106.852 62.33 204.8 160.278 244.87 8.904 4.452 17.809 0 22.261-8.904s0-17.809-8.904-22.261c-84.591-35.617-142.47-124.661-142.47-218.157 0-129.113 106.852-235.965 235.965-235.965s235.965 106.852 235.965 235.965c0 93.496-57.878 178.087-142.47 218.157-8.904 4.452-13.357 13.357-8.904 22.261 4.452 4.452 13.357 8.904 17.809 8.904v0zM471.93 618.852z"
        ],
        "attrs": [],
        "width": 739,
        "isMulticolor": false,
        "isMulticolor2": false,
        "grid": 0,
        "tags": [
          "redes"
        ],
        "colorPermutations": {}
      },
      "attrs": [],
      "properties": {
        "order": 10,
        "id": 7,
        "name": "redes",
        "prevSize": 32,
        "code": 59661
      },
      "setIdx": 0,
      "setId": 0,
      "iconIdx": 17
    },
    {
      "icon": {
        "paths": [
          "M614.4 0h-522.24c-51.2 0-92.16 35.84-92.16 76.8v875.52c0 40.96 40.96 76.8 92.16 76.8h522.24c51.2 0 92.16-35.84 92.16-76.8v-875.52c0-46.080-40.96-76.8-92.16-76.8zM46.080 184.32h619.52v547.84h-619.52v-547.84zM92.16 35.84h522.24c25.6 0 51.2 20.48 51.2 40.96v76.8h-619.52v-76.8c0-25.6 20.48-40.96 46.080-40.96zM614.4 988.16h-522.24c-25.6 0-51.2-20.48-51.2-40.96v-179.2h619.52v179.2c5.12 25.6-15.36 40.96-46.080 40.96z"
        ],
        "attrs": [],
        "width": 707,
        "isMulticolor": false,
        "isMulticolor2": false,
        "grid": 0,
        "tags": [
          "tel"
        ],
        "colorPermutations": {}
      },
      "attrs": [],
      "properties": {
        "order": 13,
        "id": 6,
        "name": "tel",
        "prevSize": 32,
        "code": 59662
      },
      "setIdx": 0,
      "setId": 0,
      "iconIdx": 18
    },
    {
      "icon": {
        "paths": [
          "M1261.714 115.81c-48.762 18.286-97.524 36.571-146.286 42.667 54.857-30.476 91.429-85.333 115.81-140.19-48.762 30.476-103.619 48.762-164.571 60.952-48.762-48.762-115.81-79.238-188.952-79.238-140.19 0-256 115.81-256 256 0 18.286 0 42.667 6.095 60.952-213.333-12.19-402.286-115.81-530.286-268.19-24.381 36.571-36.571 85.333-36.571 128 0 91.429 48.762 170.667 115.81 213.333-42.667 0-79.238-12.19-115.81-30.476v6.095c0 128 91.429 231.619 207.238 256-24.381 6.095-42.667 6.095-67.048 6.095-18.286 0-30.476 0-48.762-6.095 30.476 103.619 128 176.762 243.81 176.762-85.333 67.048-201.143 109.714-323.048 109.714-18.286 0-42.667 0-60.952-6.095 115.81 73.143 249.905 115.81 396.19 115.81 475.429 0 731.429-396.19 731.429-731.429v-30.476c42.667-42.667 85.333-85.333 121.905-140.19z"
        ],
        "attrs": [],
        "width": 1256,
        "isMulticolor": false,
        "isMulticolor2": false,
        "grid": 0,
        "tags": [
          "twitter"
        ],
        "colorPermutations": {}
      },
      "attrs": [],
      "properties": {
        "order": 14,
        "id": 5,
        "name": "twitter",
        "prevSize": 32,
        "code": 59663
      },
      "setIdx": 0,
      "setId": 0,
      "iconIdx": 19
    },
    {
      "icon": {
        "paths": [
          "M362.020 227.556c-72.404 0-131.017 58.613-131.017 131.017s58.613 131.017 131.017 131.017c72.404 0 131.017-58.613 131.017-131.017s-58.613-131.017-131.017-131.017v0zM362.020 462.007c-58.613 0-106.882-48.269-106.882-106.882s48.269-106.882 106.882-106.882c58.613 0 106.882 48.269 106.882 106.882s-48.269 106.882-106.882 106.882v0zM362.020 451.663z",
          "M613.71 106.882c-68.956-68.956-158.599-103.434-255.138-103.434s-186.182 37.926-255.138 103.434c-124.121 124.121-141.36 362.020-34.478 503.38l286.168 413.737 286.168-413.737c113.778-141.36 96.539-379.259-27.582-503.38v0zM617.158 589.576l-258.586 375.811-258.586-375.811c-96.539-131.017-82.747-344.781 31.030-462.007 62.061-62.061 141.36-96.539 231.003-96.539 86.195 0 168.943 34.478 231.003 96.539 110.33 117.226 124.121 330.99 24.135 462.007v0zM617.158 589.576z"
        ],
        "attrs": [],
        "width": 717,
        "isMulticolor": false,
        "isMulticolor2": false,
        "grid": 0,
        "tags": [
          "ubicacion"
        ],
        "colorPermutations": {}
      },
      "attrs": [],
      "properties": {
        "order": 27,
        "id": 4,
        "name": "ubicacion",
        "prevSize": 32,
        "code": 59713
      },
      "setIdx": 0,
      "setId": 0,
      "iconIdx": 20
    },
    {
      "icon": {
        "paths": [
          "M1437.416 1024h-1348.373c-50.882 0-95.404-44.522-95.404-95.404v-833.193c0-50.882 44.522-95.404 95.404-95.404h1348.373c50.882 0 95.404 44.522 95.404 95.404v833.193c0 50.882-44.522 95.404-95.404 95.404zM89.043 50.882c-25.441 0-44.522 19.081-44.522 44.522v833.193c0 25.441 19.081 44.522 44.522 44.522h1348.373c25.441 0 44.522-19.081 44.522-44.522v-833.193c0-25.441-19.081-44.522-44.522-44.522h-1348.373z",
          "M1380.174 896.795h-566.062c-12.72 0-25.441-12.72-25.441-25.441v-718.708c0-12.72 12.72-25.441 25.441-25.441h566.062c12.72 0 25.441 12.72 25.441 25.441v718.708c0 12.72-6.36 25.441-25.441 25.441zM845.913 845.913h515.18v-667.826h-515.18v667.826z",
          "M254.41 279.851h-101.764c-12.72 0-25.441-12.72-25.441-25.441v-101.764c0-12.72 12.72-25.441 25.441-25.441h101.764c12.72 0 25.441 12.72 25.441 25.441v101.764c0 12.72-12.72 25.441-25.441 25.441zM178.087 228.969h50.882v-50.882h-50.882v50.882z",
          "M457.938 279.851h-101.764c-12.72 0-25.441-12.72-25.441-25.441v-101.764c0-12.72 12.72-25.441 25.441-25.441h101.764c12.72 0 25.441 12.72 25.441 25.441v101.764c0 12.72-6.36 25.441-25.441 25.441zM381.615 228.969h50.882v-50.882h-50.882v50.882z",
          "M661.466 279.851h-101.764c-12.72 0-25.441-12.72-25.441-25.441v-101.764c0-12.72 12.72-25.441 25.441-25.441h101.764c12.72 0 25.441 12.72 25.441 25.441v101.764c0 12.72-6.36 25.441-25.441 25.441zM585.143 228.969h50.882v-50.882h-50.882v50.882z",
          "M254.41 483.379h-101.764c-12.72 0-25.441-12.72-25.441-25.441v-101.764c0-12.72 12.72-25.441 25.441-25.441h101.764c12.72 0 25.441 12.72 25.441 25.441v101.764c0 19.081-12.72 25.441-25.441 25.441zM178.087 432.497h50.882v-50.882h-50.882v50.882z",
          "M457.938 483.379h-101.764c-12.72 0-25.441-12.72-25.441-25.441v-101.764c0-12.72 12.72-25.441 25.441-25.441h101.764c12.72 0 25.441 12.72 25.441 25.441v101.764c0 19.081-6.36 25.441-25.441 25.441zM381.615 432.497h50.882v-50.882h-50.882v50.882z",
          "M661.466 483.379h-101.764c-12.72 0-25.441-12.72-25.441-25.441v-101.764c0-12.72 12.72-25.441 25.441-25.441h101.764c12.72 0 25.441 12.72 25.441 25.441v101.764c0 19.081-6.36 25.441-25.441 25.441zM585.143 432.497h50.882v-50.882h-50.882v50.882z",
          "M254.41 693.267h-101.764c-12.72 0-25.441-12.72-25.441-25.441v-108.124c0-12.72 12.72-25.441 25.441-25.441h101.764c12.72 0 25.441 12.72 25.441 25.441v101.764c0 19.081-12.72 31.801-25.441 31.801zM178.087 636.025h50.882v-50.882h-50.882v50.882z",
          "M254.41 896.795h-101.764c-12.72 0-25.441-12.72-25.441-25.441v-101.764c0-12.72 12.72-25.441 25.441-25.441h101.764c12.72 0 25.441 12.72 25.441 25.441v101.764c0 12.72-12.72 25.441-25.441 25.441zM178.087 845.913h50.882v-50.882h-50.882v50.882z",
          "M661.466 896.795h-305.292c-12.72 0-25.441-12.72-25.441-25.441v-101.764c0-12.72 12.72-25.441 25.441-25.441h305.292c12.72 0 25.441 12.72 25.441 25.441v101.764c0 12.72-6.36 25.441-25.441 25.441zM381.615 845.913h254.41v-50.882h-254.41v50.882z",
          "M457.938 693.267h-101.764c-12.72 0-25.441-12.72-25.441-25.441v-108.124c0-12.72 12.72-25.441 25.441-25.441h101.764c12.72 0 25.441 12.72 25.441 25.441v101.764c0 19.081-6.36 31.801-25.441 31.801zM381.615 636.025h50.882v-50.882h-50.882v50.882z",
          "M661.466 693.267h-101.764c-12.72 0-25.441-12.72-25.441-25.441v-108.124c0-12.72 12.72-25.441 25.441-25.441h101.764c12.72 0 25.441 12.72 25.441 25.441v101.764c0 19.081-6.36 31.801-25.441 31.801zM585.143 636.025h50.882v-50.882h-50.882v50.882z"
        ],
        "attrs": [],
        "width": 1539,
        "isMulticolor": false,
        "isMulticolor2": false,
        "grid": 0,
        "tags": [
          "video"
        ],
        "colorPermutations": {}
      },
      "attrs": [],
      "properties": {
        "order": 30,
        "id": 3,
        "name": "video",
        "prevSize": 32,
        "code": 59714
      },
      "setIdx": 0,
      "setId": 0,
      "iconIdx": 21
    },
    {
      "icon": {
        "paths": [
          "M1024 501.76c0 276.48-225.28 496.64-501.76 496.64-87.040 0-168.96-20.48-240.64-61.44l-276.48 87.040 92.16-266.24c-46.080-76.8-71.68-163.84-71.68-256 0-276.48 225.28-496.64 501.76-496.64 271.36-5.12 496.64 220.16 496.64 496.64zM517.12 81.92c-235.52 0-424.96 189.44-424.96 419.84 0 92.16 30.72 179.2 81.92 245.76l-51.2 153.6 163.84-51.2c66.56 46.080 148.48 71.68 230.4 71.68 235.52 0 424.96-189.44 424.96-419.84s-189.44-419.84-424.96-419.84zM773.12 614.4c-5.12-5.12-10.24-10.24-25.6-15.36-10.24-5.12-71.68-35.84-81.92-40.96s-20.48-5.12-25.6 5.12c-10.24 10.24-30.72 40.96-40.96 46.080-5.12 10.24-15.36 10.24-25.6 5.12s-51.2-20.48-97.28-61.44c-35.84-30.72-61.44-71.68-66.56-87.040-5.12-10.24 0-20.48 5.12-25.6s10.24-15.36 20.48-20.48c5.12-5.12 10.24-10.24 10.24-20.48 5.12-10.24 0-15.36 0-20.48-5.12-5.12-25.6-66.56-35.84-92.16s-20.48-20.48-25.6-20.48c-5.12 0-15.36 0-25.6 0s-20.48 5.12-30.72 15.36c-10.24 10.24-40.96 40.96-40.96 102.4s46.080 117.76 51.2 128c5.12 10.24 87.040 133.12 209.92 184.32s122.88 30.72 148.48 30.72c20.48 0 71.68-30.72 81.92-56.32 0-25.6 0-51.2-5.12-56.32z"
        ],
        "attrs": [],
        "isMulticolor": false,
        "isMulticolor2": false,
        "grid": 0,
        "tags": [
          "wts"
        ],
        "colorPermutations": {}
      },
      "attrs": [],
      "properties": {
        "order": 31,
        "id": 2,
        "name": "wts",
        "prevSize": 32,
        "code": 59715
      },
      "setIdx": 0,
      "setId": 0,
      "iconIdx": 22
    },
    {
      "icon": {
        "paths": [
          "M536.908 714.032c0-5.535 0-11.070-5.535-16.605 0-5.535-5.535-11.070-16.605-11.070-5.535 0-16.605 0-22.141 5.535 0 0-5.535 5.535-5.535 5.535v171.589c0 0 0 0 0 0 5.535 5.535 11.070 11.070 16.605 11.070 11.070 0 22.141 0 22.141-11.070 0-5.535 0-5.535 0-11.070 11.070-44.281 11.070-94.097 11.070-143.914zM536.908 714.032c0-5.535 0-11.070-5.535-16.605 0-5.535-5.535-11.070-16.605-11.070-5.535 0-16.605 0-22.141 5.535 0 0-5.535 5.535-5.535 5.535v171.589c0 0 0 0 0 0 5.535 5.535 11.070 11.070 16.605 11.070 11.070 0 22.141 0 22.141-11.070 0-5.535 0-5.535 0-11.070 11.070-44.281 11.070-94.097 11.070-143.914zM725.103 459.416c-199.265-5.535-398.53-5.535-597.795 0-66.422 0-121.773 55.351-121.773 127.308v309.968c0 66.422 55.351 127.308 121.773 127.308 199.265 5.535 398.53 5.535 597.795 0 66.422 0 121.773-55.351 121.773-127.308v-309.968c0-66.422-55.351-127.308-121.773-127.308zM182.659 924.368h-55.351v-326.573h-60.886v-55.351h177.124v55.351h-60.886v326.573zM387.459 791.524v132.843h-49.816v-33.211c0 0-5.535 5.535-5.535 5.535-11.070 11.070-22.141 22.141-38.746 27.676-5.535 0-16.605 5.535-22.141 0-11.070 0-16.605-5.535-22.141-16.605s-5.535-16.605-5.535-27.676c0-38.746 0-232.476 0-232.476h49.816c0 0 0 143.914 0 210.335 0 5.535 0 5.535 0 11.070 0 11.070 11.070 11.070 16.605 11.070 11.070-5.535 16.605-11.070 22.141-16.605 0 0 0-5.535 0-5.535v-210.335h49.816v143.914zM581.189 896.692c-5.535 22.141-22.141 33.211-44.281 33.211-16.605 0-33.211-5.535-44.281-22.141 0 0-5.535-5.535-5.535-5.535v22.141h-49.816v-376.389h49.816v121.773c0 0 5.535-5.535 5.535-11.070 5.535-11.070 16.605-16.605 27.676-16.605 22.141-5.535 44.281 0 55.351 22.141 5.535 11.070 5.535 27.676 5.535 44.281 0 55.351 0 105.168 0 160.519 5.535 11.070 5.535 22.141 0 27.676zM769.384 891.157c-11.070 27.676-27.676 38.746-55.351 44.281-16.605 0-33.211 0-49.816-5.535-22.141-11.070-33.211-27.676-38.746-49.816 0-11.070-5.535-22.141-5.535-33.211 0-38.746 0-83.027 0-121.773 0-22.141 5.535-44.281 22.141-60.886s38.746-27.676 60.886-22.141c5.535 0 16.605 0 22.141 5.535 22.141 5.535 38.746 27.676 44.281 49.816 0 11.070 0 16.605 5.535 27.676 0 22.141 0 71.957 0 71.957h-99.632v71.957c0 11.070 11.070 22.141 22.141 22.141s22.141-11.070 22.141-22.141v-33.211h49.816c5.535-11.070 5.535 33.211-0 55.351zM725.103 708.497c0-11.070-11.070-22.141-22.141-22.141s-22.141 11.070-22.141 22.141v38.746h44.281v-38.746zM531.373 697.427c0-5.535-5.535-11.070-16.605-11.070-5.535 0-16.605 0-22.141 5.535 0 0-5.535 5.535-5.535 5.535v171.589c0 0 0 0 0 0 5.535 5.535 11.070 11.070 16.605 11.070 11.070 0 22.141 0 22.141-11.070 0-5.535 0-5.535 0-11.070 0-49.816 0-99.632 0-149.449 11.070-0 5.535-5.535 5.535-11.070z",
          "M658.681 99.632v282.292h-49.816v-27.676c-5.535 5.535-11.070 11.070-16.605 16.605-11.070 11.070-22.141 16.605-33.211 16.605-22.141 5.535-38.746 0-44.281-22.141 0-5.535-5.535-16.605-5.535-22.141v-238.011h49.816v215.87c0 5.535 0 5.535 0 11.070 0 11.070 5.535 11.070 16.605 11.070 11.070-5.535 16.605-11.070 27.676-16.605 0 0 0-5.535 0-5.535v-210.335h55.351z",
          "M232.476 149.449c-11.070-49.816-33.211-149.449-33.211-149.449h-60.886c0 0 44.281 149.449 66.422 215.87 0 0 0 5.535 0 5.535v154.984h55.351v-154.984c0 0 0-5.535 0-5.535 22.141-66.422 66.422-215.87 66.422-215.87h-60.886c0 0-22.141 99.632-33.211 149.449z",
          "M398.53 94.097v0c-38.746 0-71.957 33.211-71.957 71.957v143.914c0 38.746 33.211 71.957 71.957 71.957s77.492-33.211 77.492-71.957v-143.914c-5.535-38.746-38.746-71.957-77.492-71.957zM415.135 315.503c0 11.070-11.070 22.141-22.141 22.141s-22.141-11.070-22.141-22.141v-149.449c0-11.070 11.070-22.141 22.141-22.141s22.141 11.070 22.141 22.141v149.449z"
        ],
        "attrs": [],
        "width": 847,
        "isMulticolor": false,
        "isMulticolor2": false,
        "grid": 0,
        "tags": [
          "youtube"
        ],
        "colorPermutations": {}
      },
      "attrs": [],
      "properties": {
        "order": 35,
        "id": 1,
        "name": "youtube",
        "prevSize": 32,
        "code": 59716
      },
      "setIdx": 0,
      "setId": 0,
      "iconIdx": 23
    },
    {
      "icon": {
        "paths": [
          "M1484.33 93.945c-56.367-65.761-159.706-84.55-356.991-84.55h-713.982c-197.284 0-310.018 28.183-356.991 93.945-56.367 65.761-56.367 159.706-56.367 291.229v253.651c0 253.651 65.761 385.174 413.358 385.174h713.982c169.101 0 263.046-18.789 328.807-75.156s93.945-150.312 93.945-310.018v-253.651c-9.394-140.917-9.394-234.862-65.761-300.624v0zM986.422 554.275l-328.807 159.706c-9.394 0-18.789 9.394-18.789 9.394-9.394 0-18.789 0-28.183-9.394-18.789-9.394-28.183-28.183-28.183-37.578v-319.413c0-18.789 9.394-28.183 28.183-37.578s37.578-9.394 46.972 0l328.807 159.706c18.789 9.394 28.183 28.183 28.183 37.578s-9.394 28.183-28.183 37.578v0zM986.422 554.275z"
        ],
        "attrs": [],
        "width": 1541,
        "isMulticolor": false,
        "isMulticolor2": false,
        "grid": 0,
        "tags": [
          "youtube2"
        ],
        "colorPermutations": {}
      },
      "attrs": [],
      "properties": {
        "order": 37,
        "id": 0,
        "name": "youtube2",
        "prevSize": 32,
        "code": 59717
      },
      "setIdx": 0,
      "setId": 0,
      "iconIdx": 24
    }
  ],
  "height": 1024,
  "metadata": {
    "name": "icomoon"
  },
  "preferences": {
    "showGlyphs": true,
    "showCodes": true,
    "showQuickUse": true,
    "showQuickUse2": true,
    "showSVGs": true,
    "fontPref": {
      "prefix": "icon-",
      "metadata": {
        "fontFamily": "icomoon"
      },
      "metrics": {
        "emSize": 1024,
        "baseline": 6.25,
        "whitespace": 50
      },
      "embed": false
    },
    "imagePref": {
      "prefix": "icon-",
      "png": true,
      "useClassSelector": true,
      "color": 0,
      "bgColor": 16777215
    },
    "historySize": 50,
    "gridSize": 16
  }
}